CS 205 Project 4
…
PairDistances <-  StationPairs %>% mutate(distance = haversine(lat, long, lat2, long2)) %>% select(sstation, estation, distance)

RideDistances <- Trips %>% inner_join(PairDistances)

## Joining, by = c("sstation", "estation")

## Warning: Column `sstation` joining character vector and factor, coercing into
## character vector

## Warning: Column `estation` joining character vector and factor, coercing into
## character vector

RideDistances

## # A tibble: 713,557 x 7
##    sdate               sstation edate               estation bikeno client
##    <dttm>              <chr>    <dttm>              <chr>    <chr>  <chr> 
##  1 2019-10-01 00:01:59 17th & ~ 2019-10-01 00:09:08 14th & ~ W23731 Member
##  2 2019-10-01 00:03:07 3rd St ~ 2019-10-01 00:35:23 3rd St ~ W22377 Member
##  3 2019-10-01 00:03:51 17th & ~ 2019-10-01 00:13:14 12th & ~ W23473 Member
##  4 2019-10-01 00:05:34 Ward Ci~ 2019-10-01 00:15:59 Wiscons~ W21371 Member
##  5 2019-10-01 00:05:47 1st & O~ 2019-10-01 00:10:59 7th & T~ W23666 Member
##  6 2019-10-01 00:07:31 21st & ~ 2019-10-01 00:23:39 Park Rd~ W01411 Member
##  7 2019-10-01 00:07:54 18th & ~ 2019-10-01 00:19:49 7th & R~ W23069 Member
##  8 2019-10-01 00:09:32 1st & W~ 2019-10-01 00:23:51 18th St~ W00684 Member
##  9 2019-10-01 00:09:40 Gravell~ 2019-10-01 00:41:25 D St & ~ W21735 Member
## 10 2019-10-01 00:10:18 1st & M~ 2019-10-01 00:23:06 14th & ~ W23280 Member
## # ... with 713,547 more rows, and 1 more variable: distance <dbl>
…
